<svg xmlns="http://www.w3.org/2000/svg" xmlns:xlink="http://www.w3.org/1999/xlink" width="15" height="14" viewBox="0 0 15 14">
    <defs>
        <path id="a" d="M7.5 11.609L2.865 14l.885-5.065L0 5.348l5.182-.74L7.5 0l2.318 4.609L15 5.348l-3.75 3.587.885 5.065z"/>
    </defs>
    <g fill="none" fill-rule="evenodd">
        <use fill="#999" xlink:href="#a"/>
        <path stroke="#999" d="M11.47 13.094l-.758-4.336 3.199-3.06-4.423-.631L7.5 1.113 5.512 5.067l-4.423.63 3.2 3.06-.758 4.337L7.5 11.046l3.97 2.048z"/>
    </g>
</svg>
